<svg xmlns="http://www.w3.org/2000/svg" width="40" height="40" viewBox="0 0 40 40">
  <g id="Groupe_18" data-name="Groupe 18" transform="translate(-10 -30)">
    <rect id="Rectangle_3" data-name="Rectangle 3" width="40" height="40" transform="translate(10 30)" fill="#f16e00"/>
    <rect id="Rectangle_4" data-name="Rectangle 4" width="28" height="6" transform="translate(16 57)" fill="#fff"/>
  </g>
</svg>
